[
  {
    "timeStamp": 1585602544930,
    "time": 67256,
    "hash": "938b709eba36828f8438",
    "errors": [],
    "size": 3885462,
    "assets": [
      {
        "name": "../server/client.manifest.json",
        "chunks": [],
        "size": 50195
      },
      {
        "name": "../server/index.spa.html",
        "chunks": [],
        "size": 581
      },
      {
        "name": "../server/index.ssr.html",
        "chunks": [],
        "size": 149
      },
      {
        "name": "0bd934530d1659e4bd7a.js",
        "chunks": [
          11
        ],
        "size": 1893,
        "minified": true
      },
      {
        "name": "0e779e41cd7d771566c9.js",
        "chunks": [
          13
        ],
        "size": 4282,
        "minified": true
      },
      {
        "name": "22122e881d91a22b6e5a.css",
        "chunks": [
          6,
          7,
          8
        ],
        "size": 322
      },
      {
        "name": "23e9fe796c26389c2022.js",
        "chunks": [
          10
        ],
        "size": 3410,
        "minified": true
      },
      {
        "name": "2929dc2c9da9032e36f3.js",
        "chunks": [
          21
        ],
        "size": 197674,
        "minified": true
      },
      {
        "name": "3530d678ae5d4dd661f1.js",
        "chunks": [
          18
        ],
        "size": 2534,
        "minified": true
      },
      {
        "name": "4c4d84d89d3ad9934af7.js",
        "chunks": [
          6
        ],
        "size": 11458,
        "minified": true
      },
      {
        "name": "584221db60fd51852c82.css",
        "chunks": [
          20
        ],
        "size": 411839
      },
      {
        "name": "587895a268e2ae36f647.js",
        "chunks": [
          16
        ],
        "size": 1792,
        "minified": true
      },
      {
        "name": "615602bde5d471d67b0c.js",
        "chunks": [
          0
        ],
        "size": 1119,
        "minified": true
      },
      {
        "name": "69233c447e51e5cc9498.css",
        "chunks": [
          23
        ],
        "size": 227156
      },
      {
        "name": "6b32de9794780ed11189.js",
        "chunks": [
          14
        ],
        "size": 1995,
        "minified": true
      },
      {
        "name": "735d3828d7539aabe46d.css",
        "chunks": [
          5
        ],
        "size": 32
      },
      {
        "name": "7691d620da067844fbb2.js",
        "chunks": [
          23
        ],
        "size": 1083091,
        "minified": true
      },
      {
        "name": "7f8d4d741b1358606f54.js",
        "chunks": [
          4
        ],
        "size": 477276,
        "minified": true
      },
      {
        "name": "81833ab775dc64150c2e.js",
        "chunks": [
          19
        ],
        "size": 2567,
        "minified": true
      },
      {
        "name": "8c9db1107c60b18196c1.css",
        "chunks": [
          4
        ],
        "size": 46014
      },
      {
        "name": "LICENSES",
        "chunks": [],
        "size": 3749
      },
      {
        "name": "a7e8eba879a40c7e82b6.js",
        "chunks": [
          3
        ],
        "size": 1061,
        "minified": true
      },
      {
        "name": "a91c902a1a67684fc9c5.js",
        "chunks": [
          15
        ],
        "size": 1772,
        "minified": true
      },
      {
        "name": "b19fd61bb15133be0f31.js",
        "chunks": [
          20
        ],
        "size": 95464,
        "minified": true
      },
      {
        "name": "b60c7d0fa2247f2a34cd.js",
        "chunks": [
          12
        ],
        "size": 3351,
        "minified": true
      },
      {
        "name": "baf7251bc6c3e7ebaa2c.js",
        "chunks": [
          1
        ],
        "size": 1351,
        "minified": true
      },
      {
        "name": "d14ba3970194507aab60.js",
        "chunks": [
          22
        ],
        "size": 4195,
        "minified": true
      },
      {
        "name": "d21e14cabbf2996f2fc2.css",
        "chunks": [
          0
        ],
        "size": 36
      },
      {
        "name": "d28d78f9ad1474d83ffb.js",
        "chunks": [
          7
        ],
        "size": 11490,
        "minified": true
      },
      {
        "name": "d89ad2c1d84f62789005.js",
        "chunks": [
          17
        ],
        "size": 2345,
        "minified": true
      },
      {
        "name": "d92c4e01dba6480b64ff.js",
        "chunks": [
          5
        ],
        "size": 3175,
        "minified": true
      },
      {
        "name": "dee4bb6b87108a0a5d7f.js",
        "chunks": [
          9
        ],
        "size": 2708,
        "minified": true
      },
      {
        "name": "f006a937a7d9e7492875.js",
        "chunks": [
          8
        ],
        "size": 11389,
        "minified": true
      },
      {
        "name": "f94a6b8958440701095f.js",
        "chunks": [
          2
        ],
        "size": 1282,
        "minified": true
      },
      {
        "name": "fonts/2569aae.woff",
        "chunks": [],
        "size": 10220
      },
      {
        "name": "fonts/4264397.woff2",
        "chunks": [],
        "size": 8580
      },
      {
        "name": "fonts/535877f.woff",
        "chunks": [],
        "size": 28200
      },
      {
        "name": "fonts/674f50d.eot",
        "chunks": [],
        "size": 165742
      },
      {
        "name": "fonts/732389d.ttf",
        "chunks": [],
        "size": 55956
      },
      {
        "name": "fonts/af7ae50.woff2",
        "chunks": [],
        "size": 77160
      },
      {
        "name": "fonts/b06871f.ttf",
        "chunks": [],
        "size": 165548
      },
      {
        "name": "fonts/c173356.eot",
        "chunks": [],
        "size": 18516
      },
      {
        "name": "fonts/f82ec6b.ttf",
        "chunks": [],
        "size": 18292
      },
      {
        "name": "fonts/fee66e7.woff",
        "chunks": [],
        "size": 98024
      },
      {
        "name": "img/0b8a30b.svg",
        "chunks": [],
        "size": 126098
      },
      {
        "name": "img/912ec66.svg",
        "chunks": [],
        "size": 444379
      }
    ],
    "chunks": [
      {
        "size": 3229,
        "files": [
          "d21e14cabbf2996f2fc2.css",
          "615602bde5d471d67b0c.js"
        ],
        "modules": [
          {
            "name": "./client/pages/settings/index.vue + 4 modules",
            "size": 2296,
            "id": 102
          },
          {
            "name": "./node_modules/extract-css-chunks-webpack-plugin/dist/loader.js??ref--3-oneOf-1-0!./node_modules/css-loader/dist/cjs.js??ref--3-oneOf-1-1!./node_modules/vue-loader/lib/loaders/stylePostLoader.js!./node_modules/postcss-loader/src??ref--3-oneOf-1-2!./node_modules/vue-loader/lib??vue-loader-options!./client/pages/settings/index.vue?vue&type=style&index=0&lang=css&",
            "size": 49,
            "id": 372
          },
          {
            "name": "./client/pages/settings/index.vue?vue&type=style&index=0&lang=css&",
            "size": 848,
            "id": 407
          },
          {
            "name": "css ./node_modules/css-loader/dist/cjs.js??ref--3-oneOf-1-1!./node_modules/vue-loader/lib/loaders/stylePostLoader.js!./node_modules/postcss-loader/src??ref--3-oneOf-1-2!./node_modules/vue-loader/lib??vue-loader-options!./client/pages/settings/index.vue?vue&type=style&index=0&lang=css&",
            "size": 36,
            "id": ""
          }
        ]
      },
      {
        "size": 1399,
        "files": [
          "baf7251bc6c3e7ebaa2c.js"
        ],
        "modules": [
          {
            "name": "./client/lang/en.json",
            "size": 1399,
            "id": 203
          }
        ]
      },
      {
        "size": 1310,
        "files": [
          "f94a6b8958440701095f.js"
        ],
        "modules": [
          {
            "name": "./client/lang/es.json",
            "size": 1310,
            "id": 204
          }
        ]
      },
      {
        "size": 1089,
        "files": [
          "a7e8eba879a40c7e82b6.js"
        ],
        "modules": [
          {
            "name": "./client/lang/zh-CN.json",
            "size": 1089,
            "id": 205
          }
        ]
      },
      {
        "size": 1728363,
        "files": [
          "8c9db1107c60b18196c1.css",
          "7f8d4d741b1358606f54.js"
        ],
        "modules": [
          {
            "name": "./node_modules/global/window.js",
            "size": 232,
            "id": 368
          },
          {
            "name": "./node_modules/mux.js/lib/mp4/probe.js",
            "size": 10331,
            "id": 369
          },
          {
            "name": "./node_modules/mux.js/lib/tools/mp4-inspector.js",
            "size": 26545,
            "id": 375
          },
          {
            "name": "./node_modules/mux.js/lib/utils/bin.js",
            "size": 350,
            "id": 376
          },
          {
            "name": "./node_modules/mux.js/lib/tools/caption-packet-parser.js",
            "size": 5100,
            "id": 377
          },
          {
            "name": "./node_modules/mux.js/lib/utils/stream.js",
            "size": 4227,
            "id": 378
          },
          {
            "name": "./node_modules/mux.js/lib/m2ts/stream-types.js",
            "size": 244,
            "id": 379
          },
          {
            "name": "./node_modules/global/document.js",
            "size": 392,
            "id": 382
          },
          {
            "name": "./node_modules/safe-json-parse/tuple.js",
            "size": 232,
            "id": 384
          },
          {
            "name": "./node_modules/keycode/index.js",
            "size": 3720,
            "id": 385
          },
          {
            "name": "./node_modules/xhr/index.js",
            "size": 7165,
            "id": 386
          },
          {
            "name": "./node_modules/is-function/index.js",
            "size": 426,
            "id": 387
          },
          {
            "name": "./node_modules/parse-headers/parse-headers.js",
            "size": 747,
            "id": 388
          },
          {
            "name": "./node_modules/xtend/immutable.js",
            "size": 384,
            "id": 389
          },
          {
            "name": "./node_modules/videojs-vtt.js/lib/browser-index.js",
            "size": 1451,
            "id": 390
          },
          {
            "name": "./node_modules/videojs-vtt.js/lib/vtt.js",
            "size": 41165,
            "id": 391
          },
          {
            "name": "./node_modules/videojs-vtt.js/lib/vttcue.js",
            "size": 6602,
            "id": 392
          },
          {
            "name": "./node_modules/videojs-vtt.js/lib/vttregion.js",
            "size": 3519,
            "id": 393
          },
          {
            "name": "./node_modules/url-toolkit/src/url-toolkit.js",
            "size": 7069,
            "id": 394
          },
          {
            "name": "./node_modules/mpd-parser/dist/mpd-parser.es.js",
            "size": 67701,
            "id": 395
          },
          {
            "name": "./node_modules/mux.js/lib/mp4/caption-parser.js",
            "size": 13231,
            "id": 396
          },
          {
            "name": "./node_modules/mux.js/lib/m2ts/caption-stream.js",
            "size": 28202,
            "id": 397
          },
          {
            "name": "./node_modules/mux.js/lib/tools/ts-inspector.js",
            "size": 15341,
            "id": 398
          },
          {
            "name": "./node_modules/mux.js/lib/m2ts/timestamp-rollover-stream.js",
            "size": 2772,
            "id": 399
          },
          {
            "name": "./node_modules/mux.js/lib/m2ts/probe.js",
            "size": 8857,
            "id": 400
          },
          {
            "name": "./node_modules/mux.js/lib/aac/utils.js",
            "size": 4705,
            "id": 401
          },
          {
            "name": "./node_modules/mux.js/lib/utils/clock.js",
            "size": 1568,
            "id": 402
          },
          {
            "name": "./node_modules/video.js/dist/video-js.css",
            "size": 49,
            "id": 403
          },
          {
            "name": "./node_modules/@videojs/themes/dist/forest/index.css",
            "size": 49,
            "id": 404
          },
          {
            "name": "./node_modules/video.js/dist/video.es.js + 3 modules",
            "size": 1419977,
            "id": 410
          },
          {
            "name": "css ./node_modules/css-loader/dist/cjs.js??ref--3-oneOf-1-1!./node_modules/postcss-loader/src??ref--3-oneOf-1-2!./node_modules/video.js/dist/video-js.css",
            "size": 41387,
            "id": ""
          },
          {
            "name": "css ./node_modules/css-loader/dist/cjs.js??ref--3-oneOf-1-1!./node_modules/postcss-loader/src??ref--3-oneOf-1-2!./node_modules/@videojs/themes/dist/forest/index.css",
            "size": 4623,
            "id": ""
          }
        ]
      },
      {
        "size": 7568,
        "files": [
          "735d3828d7539aabe46d.css",
          "d92c4e01dba6480b64ff.js"
        ],
        "modules": [
          {
            "name": "./client/pages/cursos/_uuid.vue + 9 modules",
            "size": 6624,
            "id": 206
          },
          {
            "name": "./node_modules/extract-css-chunks-webpack-plugin/dist/loader.js??ref--3-oneOf-1-0!./node_modules/css-loader/dist/cjs.js??ref--3-oneOf-1-1!./node_modules/vue-loader/lib/loaders/stylePostLoader.js!./node_modules/postcss-loader/src??ref--3-oneOf-1-2!./node_modules/vue-loader/lib??vue-loader-options!./client/pages/cursos/_uuid.vue?vue&type=style&index=0&lang=css&",
            "size": 49,
            "id": 370
          },
          {
            "name": "min-document (ignored)",
            "size": 15,
            "id": 383
          },
          {
            "name": "./client/pages/cursos/_uuid.vue?vue&type=style&index=0&lang=css&",
            "size": 848,
            "id": 405
          },
          {
            "name": "css ./node_modules/css-loader/dist/cjs.js??ref--3-oneOf-1-1!./node_modules/vue-loader/lib/loaders/stylePostLoader.js!./node_modules/postcss-loader/src??ref--3-oneOf-1-2!./node_modules/vue-loader/lib??vue-loader-options!./client/pages/cursos/_uuid.vue?vue&type=style&index=0&lang=css&",
            "size": 32,
            "id": ""
          }
        ]
      },
      {
        "size": 15374,
        "files": [
          "22122e881d91a22b6e5a.css",
          "4c4d84d89d3ad9934af7.js"
        ],
        "modules": [
          {
            "name": "./client/pages/error.vue + 4 modules",
            "size": 14185,
            "id": 214
          },
          {
            "name": "./node_modules/extract-css-chunks-webpack-plugin/dist/loader.js??ref--3-oneOf-1-0!./node_modules/css-loader/dist/cjs.js??ref--3-oneOf-1-1!./node_modules/vue-loader/lib/loaders/stylePostLoader.js!./node_modules/postcss-loader/src??ref--3-oneOf-1-2!./node_modules/vue-loader/lib??vue-loader-options!./client/pages/error.vue?vue&type=style&index=0&lang=css&",
            "size": 49,
            "id": 371
          },
          {
            "name": "./client/pages/error.vue?vue&type=style&index=0&lang=css&",
            "size": 818,
            "id": 406
          },
          {
            "name": "css ./node_modules/css-loader/dist/cjs.js??ref--3-oneOf-1-1!./node_modules/vue-loader/lib/loaders/stylePostLoader.js!./node_modules/postcss-loader/src??ref--3-oneOf-1-2!./node_modules/vue-loader/lib??vue-loader-options!./client/pages/error.vue?vue&type=style&index=0&lang=css&",
            "size": 322,
            "id": ""
          }
        ]
      },
      {
        "size": 15424,
        "files": [
          "22122e881d91a22b6e5a.css",
          "d28d78f9ad1474d83ffb.js"
        ],
        "modules": [
          {
            "name": "./client/pages/success.vue + 4 modules",
            "size": 14231,
            "id": 219
          },
          {
            "name": "./node_modules/extract-css-chunks-webpack-plugin/dist/loader.js??ref--3-oneOf-1-0!./node_modules/css-loader/dist/cjs.js??ref--3-oneOf-1-1!./node_modules/vue-loader/lib/loaders/stylePostLoader.js!./node_modules/postcss-loader/src??ref--3-oneOf-1-2!./node_modules/vue-loader/lib??vue-loader-options!./client/pages/success.vue?vue&type=style&index=0&lang=css&",
            "size": 49,
            "id": 373
          },
          {
            "name": "./client/pages/success.vue?vue&type=style&index=0&lang=css&",
            "size": 822,
            "id": 408
          },
          {
            "name": "css ./node_modules/css-loader/dist/cjs.js??ref--3-oneOf-1-1!./node_modules/vue-loader/lib/loaders/stylePostLoader.js!./node_modules/postcss-loader/src??ref--3-oneOf-1-2!./node_modules/vue-loader/lib??vue-loader-options!./client/pages/success.vue?vue&type=style&index=0&lang=css&",
            "size": 322,
            "id": ""
          }
        ]
      },
      {
        "size": 15301,
        "files": [
          "22122e881d91a22b6e5a.css",
          "f006a937a7d9e7492875.js"
        ],
        "modules": [
          {
            "name": "./client/pages/welcome.vue + 4 modules",
            "size": 14108,
            "id": 220
          },
          {
            "name": "./node_modules/extract-css-chunks-webpack-plugin/dist/loader.js??ref--3-oneOf-1-0!./node_modules/css-loader/dist/cjs.js??ref--3-oneOf-1-1!./node_modules/vue-loader/lib/loaders/stylePostLoader.js!./node_modules/postcss-loader/src??ref--3-oneOf-1-2!./node_modules/vue-loader/lib??vue-loader-options!./client/pages/welcome.vue?vue&type=style&index=0&lang=css&",
            "size": 49,
            "id": 374
          },
          {
            "name": "./client/pages/welcome.vue?vue&type=style&index=0&lang=css&",
            "size": 822,
            "id": 409
          },
          {
            "name": "css ./node_modules/css-loader/dist/cjs.js??ref--3-oneOf-1-1!./node_modules/vue-loader/lib/loaders/stylePostLoader.js!./node_modules/postcss-loader/src??ref--3-oneOf-1-2!./node_modules/vue-loader/lib??vue-loader-options!./client/pages/welcome.vue?vue&type=style&index=0&lang=css&",
            "size": 322,
            "id": ""
          }
        ]
      },
      {
        "size": 5267,
        "files": [
          "dee4bb6b87108a0a5d7f.js"
        ],
        "modules": [
          {
            "name": "./client/pages/admin/crearCurso.vue + 4 modules",
            "size": 4368,
            "id": 207
          },
          {
            "name": "./node_modules/core-js/modules/es6.string.link.js",
            "size": 197,
            "id": 380
          },
          {
            "name": "./node_modules/core-js/modules/_string-html.js",
            "size": 702,
            "id": 381
          }
        ]
      },
      {
        "size": 5977,
        "files": [
          "23e9fe796c26389c2022.js"
        ],
        "modules": [
          {
            "name": "./client/pages/auth/login.vue + 4 modules",
            "size": 5977,
            "id": 208
          }
        ]
      },
      {
        "size": 3824,
        "files": [
          "0bd934530d1659e4bd7a.js"
        ],
        "modules": [
          {
            "name": "./client/pages/auth/password/email.vue + 4 modules",
            "size": 3824,
            "id": 209
          }
        ]
      },
      {
        "size": 5559,
        "files": [
          "b60c7d0fa2247f2a34cd.js"
        ],
        "modules": [
          {
            "name": "./client/pages/auth/password/reset.vue + 4 modules",
            "size": 5559,
            "id": 210
          }
        ]
      },
      {
        "size": 7454,
        "files": [
          "0e779e41cd7d771566c9.js"
        ],
        "modules": [
          {
            "name": "./client/pages/auth/register.vue + 4 modules",
            "size": 7454,
            "id": 211
          }
        ]
      },
      {
        "size": 3980,
        "files": [
          "6b32de9794780ed11189.js"
        ],
        "modules": [
          {
            "name": "./client/pages/auth/verification/resend.vue + 4 modules",
            "size": 3980,
            "id": 212
          }
        ]
      },
      {
        "size": 4041,
        "files": [
          "a91c902a1a67684fc9c5.js"
        ],
        "modules": [
          {
            "name": "./client/pages/auth/verification/verify.vue + 4 modules",
            "size": 4041,
            "id": 213
          }
        ]
      },
      {
        "size": 3311,
        "files": [
          "587895a268e2ae36f647.js"
        ],
        "modules": [
          {
            "name": "./client/pages/home.vue + 4 modules",
            "size": 3311,
            "id": 215
          }
        ]
      },
      {
        "size": 4208,
        "files": [
          "d89ad2c1d84f62789005.js"
        ],
        "modules": [
          {
            "name": "./client/pages/lista.vue + 4 modules",
            "size": 4208,
            "id": 216
          }
        ]
      },
      {
        "size": 4488,
        "files": [
          "3530d678ae5d4dd661f1.js"
        ],
        "modules": [
          {
            "name": "./client/pages/settings/password.vue + 4 modules",
            "size": 4488,
            "id": 217
          }
        ]
      },
      {
        "size": 4895,
        "files": [
          "81833ab775dc64150c2e.js"
        ],
        "modules": [
          {
            "name": "./client/pages/settings/profile.vue + 4 modules",
            "size": 4895,
            "id": 218
          }
        ]
      },
      {
        "size": 686133,
        "files": [
          "584221db60fd51852c82.css",
          "b19fd61bb15133be0f31.js"
        ],
        "modules": [
          {
            "name": "./.nuxt/utils.js",
            "size": 20985,
            "id": 2
          },
          {
            "name": "./.nuxt/index.js + 127 modules",
            "size": 132408,
            "id": 27
          },
          {
            "name": "./client/plugins/i18n.js",
            "size": 2348,
            "id": 65
          },
          {
            "name": "./client/utils/index.js",
            "size": 1052,
            "id": 66
          },
          {
            "name": "./node_modules/extract-css-chunks-webpack-plugin/dist/loader.js??ref--3-oneOf-1-0!./node_modules/css-loader/dist/cjs.js??ref--3-oneOf-1-1!./node_modules/vue-loader/lib/loaders/stylePostLoader.js!./node_modules/postcss-loader/src??ref--3-oneOf-1-2!./node_modules/vue-loader/lib??vue-loader-options!./.nuxt/components/nuxt-error.vue?vue&type=style&index=0&lang=css&",
            "size": 49,
            "id": 95
          },
          {
            "name": "./node_modules/extract-css-chunks-webpack-plugin/dist/loader.js??ref--3-oneOf-1-0!./node_modules/css-loader/dist/cjs.js??ref--3-oneOf-1-1!./node_modules/vue-loader/lib/loaders/stylePostLoader.js!./node_modules/postcss-loader/src??ref--3-oneOf-1-2!./node_modules/vue-loader/lib??vue-loader-options!./.nuxt/components/nuxt-loading.vue?vue&type=style&index=0&lang=css&",
            "size": 49,
            "id": 96
          },
          {
            "name": "./node_modules/extract-css-chunks-webpack-plugin/dist/loader.js??ref--3-oneOf-1-0!./node_modules/css-loader/dist/cjs.js??ref--3-oneOf-1-1!./node_modules/vue-loader/lib/loaders/stylePostLoader.js!./node_modules/postcss-loader/src??ref--3-oneOf-1-2!./node_modules/vue-loader/lib??vue-loader-options!./client/layouts/AppHeader.vue?vue&type=style&index=0&lang=css&",
            "size": 49,
            "id": 97
          },
          {
            "name": "./node_modules/extract-css-chunks-webpack-plugin/dist/loader.js??ref--3-oneOf-1-0!./node_modules/css-loader/dist/cjs.js??ref--3-oneOf-1-1!./node_modules/vue-loader/lib/loaders/stylePostLoader.js!./node_modules/postcss-loader/src??ref--3-oneOf-1-2!./node_modules/vue-loader/lib??vue-loader-options!./client/components/Navbar.vue?vue&type=style&index=0&id=02a6f8f6&scoped=true&lang=css&",
            "size": 49,
            "id": 98
          },
          {
            "name": "./node_modules/babel-loader/lib??ref--2-0!./node_modules/vue-loader/lib??vue-loader-options!./client/components/global/LoginWithGithub.vue?vue&type=script&lang=js&",
            "size": 4431,
            "id": 99
          },
          {
            "name": "./.nuxt/components/nuxt-link.client.js",
            "size": 3919,
            "id": 101
          },
          {
            "name": "./.nuxt/middleware.js",
            "size": 624,
            "id": 140
          },
          {
            "name": "./client/plugins/axios.js",
            "size": 1809,
            "id": 144
          },
          {
            "name": "multi ./.nuxt/client.js",
            "size": 28,
            "id": 221
          },
          {
            "name": "./.nuxt/client.js",
            "size": 27640,
            "id": 222
          },
          {
            "name": "./client/middleware/auth.js",
            "size": 169,
            "id": 248
          },
          {
            "name": "./client/middleware/check-auth.js",
            "size": 1240,
            "id": 249
          },
          {
            "name": "./client/middleware/guest.js",
            "size": 163,
            "id": 267
          },
          {
            "name": "./client/middleware/locale.js",
            "size": 1051,
            "id": 268
          },
          {
            "name": "./client/lang lazy ^\\.\\/.*$ namespace object",
            "size": 160,
            "id": 270
          },
          {
            "name": "./client/pages lazy ^\\.\\/.*$ namespace object",
            "size": 160,
            "id": 284
          },
          {
            "name": "./.nuxt/components/nuxt-error.vue?vue&type=style&index=0&lang=css&",
            "size": 828,
            "id": 285
          },
          {
            "name": "./.nuxt/components/nuxt-loading.vue?vue&type=style&index=0&lang=css&",
            "size": 832,
            "id": 286
          },
          {
            "name": "./client/assets/sass/app.scss",
            "size": 49,
            "id": 287
          },
          {
            "name": "./client/assets/vendor/nucleo/css/nucleo.css",
            "size": 49,
            "id": 288
          },
          {
            "name": "./client/assets/vendor/font-awesome/css/font-awesome.css",
            "size": 49,
            "id": 289
          },
          {
            "name": "./client/assets/scss/argon.scss",
            "size": 49,
            "id": 290
          },
          {
            "name": "./client/layouts/AppHeader.vue?vue&type=style&index=0&lang=css&",
            "size": 826,
            "id": 293
          },
          {
            "name": "./client/components/Navbar.vue?vue&type=style&index=0&id=02a6f8f6&scoped=true&lang=css&",
            "size": 868,
            "id": 294
          },
          {
            "name": "./client/store/index.js",
            "size": 796,
            "id": 295
          },
          {
            "name": "./client/store/auth.js",
            "size": 4469,
            "id": 296
          },
          {
            "name": "./client/store/lang.js",
            "size": 808,
            "id": 297
          },
          {
            "name": "./client/components/global sync nonrecursive .*\\.(vue)$",
            "size": 237,
            "id": 298
          },
          {
            "name": "./client/components/global/Button.vue + 4 modules",
            "size": 1897,
            "id": 364
          },
          {
            "name": "./client/components/global/Card.vue + 4 modules",
            "size": 1551,
            "id": 365
          },
          {
            "name": "./client/components/global/Checkbox.vue + 4 modules",
            "size": 2681,
            "id": 366
          },
          {
            "name": "./client/components/global/LoginWithGithub.vue + 3 modules",
            "size": 1493,
            "id": 367
          },
          {
            "name": "css ./node_modules/css-loader/dist/cjs.js??ref--7-oneOf-1-1!./node_modules/postcss-loader/src??ref--7-oneOf-1-2!./node_modules/sass-loader/dist/cjs.js??ref--7-oneOf-1-3!./client/assets/sass/app.scss",
            "size": 194180,
            "id": ""
          },
          {
            "name": "css ./node_modules/css-loader/dist/cjs.js??ref--3-oneOf-1-1!./node_modules/postcss-loader/src??ref--3-oneOf-1-2!./client/assets/vendor/nucleo/css/nucleo.css",
            "size": 5778,
            "id": ""
          },
          {
            "name": "css ./node_modules/css-loader/dist/cjs.js??ref--3-oneOf-1-1!./node_modules/postcss-loader/src??ref--3-oneOf-1-2!./client/assets/vendor/font-awesome/css/font-awesome.css",
            "size": 30757,
            "id": ""
          },
          {
            "name": "css ./node_modules/css-loader/dist/cjs.js??ref--7-oneOf-1-1!./node_modules/postcss-loader/src??ref--7-oneOf-1-2!./node_modules/sass-loader/dist/cjs.js??ref--7-oneOf-1-3!./client/assets/scss/argon.scss",
            "size": 237934,
            "id": ""
          },
          {
            "name": "css ./node_modules/css-loader/dist/cjs.js??ref--3-oneOf-1-1!./node_modules/vue-loader/lib/loaders/stylePostLoader.js!./node_modules/postcss-loader/src??ref--3-oneOf-1-2!./node_modules/vue-loader/lib??vue-loader-options!./.nuxt/components/nuxt-error.vue?vue&type=style&index=0&lang=css&",
            "size": 817,
            "id": ""
          },
          {
            "name": "css ./node_modules/css-loader/dist/cjs.js??ref--3-oneOf-1-1!./node_modules/vue-loader/lib/loaders/stylePostLoader.js!./node_modules/postcss-loader/src??ref--3-oneOf-1-2!./node_modules/vue-loader/lib??vue-loader-options!./.nuxt/components/nuxt-loading.vue?vue&type=style&index=0&lang=css&",
            "size": 319,
            "id": ""
          },
          {
            "name": "css ./node_modules/css-loader/dist/cjs.js??ref--3-oneOf-1-1!./node_modules/vue-loader/lib/loaders/stylePostLoader.js!./node_modules/postcss-loader/src??ref--3-oneOf-1-2!./node_modules/vue-loader/lib??vue-loader-options!./client/layouts/AppHeader.vue?vue&type=style&index=0&lang=css&",
            "size": 410,
            "id": ""
          },
          {
            "name": "css ./node_modules/css-loader/dist/cjs.js??ref--3-oneOf-1-1!./node_modules/vue-loader/lib/loaders/stylePostLoader.js!./node_modules/postcss-loader/src??ref--3-oneOf-1-2!./node_modules/vue-loader/lib??vue-loader-options!./client/components/Navbar.vue?vue&type=style&index=0&id=02a6f8f6&scoped=true&lang=css&",
            "size": 73,
            "id": ""
          }
        ]
      },
      {
        "size": 598719,
        "files": [
          "2929dc2c9da9032e36f3.js"
        ],
        "modules": [
          {
            "name": "./node_modules/vue/dist/vue.runtime.esm.js",
            "size": 227323,
            "id": 0
          },
          {
            "name": "./node_modules/vue-loader/lib/runtime/componentNormalizer.js",
            "size": 2689,
            "id": 1
          },
          {
            "name": "./node_modules/@babel/runtime/helpers/esm/asyncToGenerator.js",
            "size": 787,
            "id": 3
          },
          {
            "name": "./node_modules/core-js/modules/_wks.js",
            "size": 358,
            "id": 4
          },
          {
            "name": "./node_modules/core-js/modules/_global.js",
            "size": 369,
            "id": 5
          },
          {
            "name": "./node_modules/core-js/modules/_an-object.js",
            "size": 154,
            "id": 6
          },
          {
            "name": "./node_modules/axios/index.js",
            "size": 40,
            "id": 7
          },
          {
            "name": "./node_modules/core-js/modules/es6.object.to-string.js",
            "size": 321,
            "id": 8
          },
          {
            "name": "./node_modules/@babel/runtime/helpers/esm/defineProperty.js",
            "size": 269,
            "id": 9
          },
          {
            "name": "./node_modules/core-js/modules/_export.js",
            "size": 1601,
            "id": 10
          },
          {
            "name": "./node_modules/core-js/modules/_descriptors.js",
            "size": 184,
            "id": 11
          },
          {
            "name": "./node_modules/axios/lib/utils.js",
            "size": 8815,
            "id": 12
          },
          {
            "name": "./node_modules/core-js/modules/web.dom.iterable.js",
            "size": 1810,
            "id": 13
          },
          {
            "name": "./node_modules/core-js/modules/_fails.js",
            "size": 104,
            "id": 14
          },
          {
            "name": "./node_modules/core-js/modules/_object-dp.js",
            "size": 600,
            "id": 15
          },
          {
            "name": "./node_modules/regenerator-runtime/runtime.js",
            "size": 24076,
            "id": 17
          },
          {
            "name": "./node_modules/core-js/modules/_is-object.js",
            "size": 110,
            "id": 18
          },
          {
            "name": "./node_modules/core-js/modules/_redefine.js",
            "size": 1050,
            "id": 19
          },
          {
            "name": "(webpack)/buildin/global.js",
            "size": 472,
            "id": 20
          },
          {
            "name": "./node_modules/core-js/modules/es6.array.iterator.js",
            "size": 1116,
            "id": 21
          },
          {
            "name": "./node_modules/core-js/modules/es6.symbol.js",
            "size": 9284,
            "id": 24
          },
          {
            "name": "./node_modules/js-cookie/src/js.cookie.js",
            "size": 3883,
            "id": 26
          },
          {
            "name": "./node_modules/core-js/modules/_hide.js",
            "size": 286,
            "id": 28
          },
          {
            "name": "./node_modules/core-js/modules/_has.js",
            "size": 120,
            "id": 29
          },
          {
            "name": "./node_modules/core-js/modules/es6.number.constructor.js",
            "size": 2793,
            "id": 30
          },
          {
            "name": "./node_modules/core-js/library/modules/_global.js",
            "size": 369,
            "id": 31
          },
          {
            "name": "./node_modules/@babel/runtime/helpers/esm/typeof.js",
            "size": 403,
            "id": 32
          },
          {
            "name": "./node_modules/core-js/modules/_defined.js",
            "size": 162,
            "id": 34
          },
          {
            "name": "./node_modules/core-js/modules/es6.object.keys.js",
            "size": 225,
            "id": 35
          },
          {
            "name": "./node_modules/core-js/modules/es6.promise.js",
            "size": 9812,
            "id": 36
          },
          {
            "name": "./node_modules/core-js/modules/_cof.js",
            "size": 106,
            "id": 37
          },
          {
            "name": "./node_modules/core-js/modules/_core.js",
            "size": 123,
            "id": 38
          },
          {
            "name": "./node_modules/core-js/modules/_to-length.js",
            "size": 215,
            "id": 39
          },
          {
            "name": "./node_modules/core-js/modules/_to-iobject.js",
            "size": 217,
            "id": 40
          },
          {
            "name": "./node_modules/core-js/library/modules/_descriptors.js",
            "size": 184,
            "id": 42
          },
          {
            "name": "./node_modules/core-js/library/modules/_has.js",
            "size": 120,
            "id": 43
          },
          {
            "name": "./node_modules/vuex/dist/vuex.esm.js",
            "size": 31309,
            "id": 44
          },
          {
            "name": "./node_modules/core-js/modules/es6.function.name.js",
            "size": 355,
            "id": 46
          },
          {
            "name": "./node_modules/core-js/modules/_ctx.js",
            "size": 520,
            "id": 47
          },
          {
            "name": "./node_modules/core-js/modules/_object-keys.js",
            "size": 222,
            "id": 48
          },
          {
            "name": "./node_modules/core-js/modules/_to-object.js",
            "size": 132,
            "id": 49
          },
          {
            "name": "./node_modules/core-js/library/modules/_hide.js",
            "size": 286,
            "id": 50
          },
          {
            "name": "./node_modules/core-js/library/modules/_object-dp.js",
            "size": 600,
            "id": 51
          },
          {
            "name": "./node_modules/core-js/library/modules/_to-iobject.js",
            "size": 217,
            "id": 52
          },
          {
            "name": "./node_modules/core-js/library/modules/_wks.js",
            "size": 358,
            "id": 53
          },
          {
            "name": "./node_modules/core-js/modules/_library.js",
            "size": 24,
            "id": 55
          },
          {
            "name": "./node_modules/core-js/modules/_uid.js",
            "size": 162,
            "id": 56
          },
          {
            "name": "./node_modules/core-js/modules/_property-desc.js",
            "size": 173,
            "id": 57
          },
          {
            "name": "./node_modules/core-js/modules/_iterators.js",
            "size": 21,
            "id": 58
          },
          {
            "name": "./node_modules/core-js/modules/_to-integer.js",
            "size": 161,
            "id": 59
          },
          {
            "name": "./node_modules/core-js/modules/_object-gopn.js",
            "size": 288,
            "id": 60
          },
          {
            "name": "./node_modules/core-js/modules/es7.object.get-own-property-descriptors.js",
            "size": 690,
            "id": 61
          },
          {
            "name": "./node_modules/core-js/library/modules/_core.js",
            "size": 123,
            "id": 62
          },
          {
            "name": "./node_modules/core-js/library/modules/_is-object.js",
            "size": 110,
            "id": 63
          },
          {
            "name": "./node_modules/core-js/library/modules/_fails.js",
            "size": 104,
            "id": 64
          },
          {
            "name": "./node_modules/@babel/runtime/helpers/esm/slicedToArray.js + 3 modules",
            "size": 1120,
            "id": 67
          },
          {
            "name": "./node_modules/core-js/modules/_a-function.js",
            "size": 125,
            "id": 69
          },
          {
            "name": "./node_modules/core-js/modules/_classof.js",
            "size": 718,
            "id": 70
          },
          {
            "name": "./node_modules/core-js/modules/_shared.js",
            "size": 428,
            "id": 71
          },
          {
            "name": "./node_modules/core-js/modules/_to-primitive.js",
            "size": 655,
            "id": 72
          },
          {
            "name": "./node_modules/core-js/modules/_set-to-string-tag.js",
            "size": 262,
            "id": 73
          },
          {
            "name": "./node_modules/core-js/modules/es7.symbol.async-iterator.js",
            "size": 43,
            "id": 74
          },
          {
            "name": "./node_modules/core-js/modules/_object-gops.js",
            "size": 42,
            "id": 75
          },
          {
            "name": "./node_modules/core-js/modules/_object-pie.js",
            "size": 37,
            "id": 76
          },
          {
            "name": "./node_modules/core-js/modules/_object-gopd.js",
            "size": 577,
            "id": 77
          },
          {
            "name": "./node_modules/core-js/modules/_regexp-exec-abstract.js",
            "size": 615,
            "id": 78
          },
          {
            "name": "./node_modules/core-js/modules/_fix-re-wks.js",
            "size": 3333,
            "id": 79
          },
          {
            "name": "./node_modules/core-js/modules/_flags.js",
            "size": 370,
            "id": 80
          },
          {
            "name": "./node_modules/core-js/modules/es7.array.includes.js",
            "size": 379,
            "id": 81
          },
          {
            "name": "./node_modules/core-js/modules/es6.object.assign.js",
            "size": 162,
            "id": 82
          },
          {
            "name": "./node_modules/process/browser.js",
            "size": 5418,
            "id": 83
          },
          {
            "name": "./node_modules/core-js/library/modules/_an-object.js",
            "size": 154,
            "id": 89
          },
          {
            "name": "./node_modules/core-js/library/modules/_property-desc.js",
            "size": 173,
            "id": 90
          },
          {
            "name": "./node_modules/core-js/library/modules/_object-keys.js",
            "size": 222,
            "id": 91
          },
          {
            "name": "./node_modules/core-js/library/modules/_library.js",
            "size": 23,
            "id": 92
          },
          {
            "name": "./node_modules/core-js/library/modules/_uid.js",
            "size": 162,
            "id": 93
          },
          {
            "name": "./node_modules/core-js/library/modules/_object-pie.js",
            "size": 37,
            "id": 94
          },
          {
            "name": "./node_modules/core-js/modules/_dom-create.js",
            "size": 289,
            "id": 103
          },
          {
            "name": "./node_modules/core-js/modules/es6.string.iterator.js",
            "size": 531,
            "id": 104
          },
          {
            "name": "./node_modules/core-js/modules/_object-create.js",
            "size": 1505,
            "id": 105
          },
          {
            "name": "./node_modules/core-js/modules/_iobject.js",
            "size": 289,
            "id": 106
          },
          {
            "name": "./node_modules/core-js/modules/_shared-key.js",
            "size": 159,
            "id": 107
          },
          {
            "name": "./node_modules/core-js/modules/_enum-bug-keys.js",
            "size": 160,
            "id": 108
          },
          {
            "name": "./node_modules/core-js/modules/_advance-string-index.js",
            "size": 262,
            "id": 109
          },
          {
            "name": "./node_modules/core-js/modules/_regexp-exec.js",
            "size": 1740,
            "id": 110
          },
          {
            "name": "./node_modules/core-js/modules/_add-to-unscopables.js",
            "size": 297,
            "id": 111
          },
          {
            "name": "./node_modules/core-js/modules/es6.string.includes.js",
            "size": 479,
            "id": 112
          },
          {
            "name": "./node_modules/core-js/modules/_is-regexp.js",
            "size": 289,
            "id": 113
          },
          {
            "name": "./node_modules/core-js/modules/es6.regexp.split.js",
            "size": 5227,
            "id": 114
          },
          {
            "name": "./node_modules/core-js/modules/es6.regexp.to-string.js",
            "size": 826,
            "id": 115
          },
          {
            "name": "./node_modules/core-js/modules/es6.date.to-string.js",
            "size": 435,
            "id": 116
          },
          {
            "name": "./node_modules/core-js/modules/es6.regexp.replace.js",
            "size": 4657,
            "id": 117
          },
          {
            "name": "./node_modules/core-js/library/modules/_export.js",
            "size": 2349,
            "id": 127
          },
          {
            "name": "./node_modules/core-js/library/modules/_to-primitive.js",
            "size": 655,
            "id": 128
          },
          {
            "name": "./node_modules/core-js/library/modules/_defined.js",
            "size": 162,
            "id": 129
          },
          {
            "name": "./node_modules/core-js/library/modules/_to-integer.js",
            "size": 161,
            "id": 130
          },
          {
            "name": "./node_modules/core-js/library/modules/_shared-key.js",
            "size": 159,
            "id": 131
          },
          {
            "name": "./node_modules/core-js/library/modules/_shared.js",
            "size": 428,
            "id": 132
          },
          {
            "name": "./node_modules/core-js/library/modules/_enum-bug-keys.js",
            "size": 160,
            "id": 133
          },
          {
            "name": "./node_modules/core-js/library/modules/_object-gops.js",
            "size": 42,
            "id": 134
          },
          {
            "name": "./node_modules/core-js/library/modules/_to-object.js",
            "size": 132,
            "id": 135
          },
          {
            "name": "./node_modules/core-js/library/modules/_iterators.js",
            "size": 21,
            "id": 136
          },
          {
            "name": "./node_modules/core-js/library/modules/_set-to-string-tag.js",
            "size": 262,
            "id": 137
          },
          {
            "name": "./node_modules/core-js/library/modules/_wks-ext.js",
            "size": 31,
            "id": 138
          },
          {
            "name": "./node_modules/core-js/library/modules/_wks-define.js",
            "size": 417,
            "id": 139
          },
          {
            "name": "./node_modules/vue-router/dist/vue-router.esm.js",
            "size": 73724,
            "id": 143
          },
          {
            "name": "./node_modules/core-js/modules/_ie8-dom-define.js",
            "size": 199,
            "id": 146
          },
          {
            "name": "./node_modules/core-js/modules/_species-constructor.js",
            "size": 348,
            "id": 147
          },
          {
            "name": "./node_modules/core-js/modules/_task.js",
            "size": 2484,
            "id": 148
          },
          {
            "name": "./node_modules/core-js/modules/_html.js",
            "size": 101,
            "id": 149
          },
          {
            "name": "./node_modules/core-js/modules/_new-promise-capability.js",
            "size": 504,
            "id": 150
          },
          {
            "name": "./node_modules/core-js/modules/_set-species.js",
            "size": 359,
            "id": 151
          },
          {
            "name": "./node_modules/core-js/modules/_string-at.js",
            "size": 620,
            "id": 152
          },
          {
            "name": "./node_modules/core-js/modules/_iter-define.js",
            "size": 2779,
            "id": 153
          },
          {
            "name": "./node_modules/core-js/modules/_object-keys-internal.js",
            "size": 537,
            "id": 154
          },
          {
            "name": "./node_modules/core-js/modules/_array-includes.js",
            "size": 924,
            "id": 155
          },
          {
            "name": "./node_modules/core-js/modules/_wks-define.js",
            "size": 417,
            "id": 156
          },
          {
            "name": "./node_modules/core-js/modules/_wks-ext.js",
            "size": 31,
            "id": 157
          },
          {
            "name": "./node_modules/core-js/modules/_is-array.js",
            "size": 147,
            "id": 158
          },
          {
            "name": "./node_modules/core-js/modules/_string-context.js",
            "size": 314,
            "id": 159
          },
          {
            "name": "./node_modules/core-js/modules/_fails-is-regexp.js",
            "size": 251,
            "id": 160
          },
          {
            "name": "./node_modules/axios/lib/helpers/bind.js",
            "size": 256,
            "id": 161
          },
          {
            "name": "./node_modules/axios/lib/helpers/buildURL.js",
            "size": 1671,
            "id": 162
          },
          {
            "name": "./node_modules/axios/lib/cancel/isCancel.js",
            "size": 102,
            "id": 163
          },
          {
            "name": "./node_modules/axios/lib/defaults.js",
            "size": 2542,
            "id": 164
          },
          {
            "name": "./node_modules/axios/lib/adapters/xhr.js",
            "size": 5837,
            "id": 165
          },
          {
            "name": "./node_modules/axios/lib/core/createError.js",
            "size": 625,
            "id": 166
          },
          {
            "name": "./node_modules/axios/lib/core/mergeConfig.js",
            "size": 2410,
            "id": 167
          },
          {
            "name": "./node_modules/axios/lib/cancel/Cancel.js",
            "size": 385,
            "id": 168
          },
          {
            "name": "./node_modules/timers-browserify/main.js",
            "size": 2022,
            "id": 169
          },
          {
            "name": "./node_modules/core-js/modules/es6.string.starts-with.js",
            "size": 762,
            "id": 170
          },
          {
            "name": "./node_modules/core-js/modules/_inherit-if-required.js",
            "size": 337,
            "id": 171
          },
          {
            "name": "./node_modules/core-js/library/modules/_ie8-dom-define.js",
            "size": 199,
            "id": 180
          },
          {
            "name": "./node_modules/core-js/library/modules/_dom-create.js",
            "size": 289,
            "id": 181
          },
          {
            "name": "./node_modules/core-js/library/modules/_object-keys-internal.js",
            "size": 537,
            "id": 182
          },
          {
            "name": "./node_modules/core-js/library/modules/_iobject.js",
            "size": 289,
            "id": 183
          },
          {
            "name": "./node_modules/core-js/library/modules/_cof.js",
            "size": 106,
            "id": 184
          },
          {
            "name": "./node_modules/core-js/library/modules/_iter-define.js",
            "size": 2779,
            "id": 185
          },
          {
            "name": "./node_modules/core-js/library/modules/_redefine.js",
            "size": 37,
            "id": 186
          },
          {
            "name": "./node_modules/core-js/library/modules/_object-create.js",
            "size": 1505,
            "id": 187
          },
          {
            "name": "./node_modules/core-js/library/modules/_object-gopn.js",
            "size": 288,
            "id": 188
          },
          {
            "name": "./node_modules/vue-meta/dist/vue-meta.esm.browser.js",
            "size": 47549,
            "id": 191
          },
          {
            "name": "./node_modules/@babel/runtime/helpers/esm/classCallCheck.js",
            "size": 176,
            "id": 193
          },
          {
            "name": "./node_modules/@babel/runtime/helpers/esm/createClass.js",
            "size": 579,
            "id": 194
          },
          {
            "name": "./node_modules/core-js/modules/_function-to-string.js",
            "size": 87,
            "id": 223
          },
          {
            "name": "./node_modules/core-js/modules/_an-instance.js",
            "size": 237,
            "id": 224
          },
          {
            "name": "./node_modules/core-js/modules/_for-of.js",
            "size": 1176,
            "id": 225
          },
          {
            "name": "./node_modules/core-js/modules/_iter-call.js",
            "size": 410,
            "id": 226
          },
          {
            "name": "./node_modules/core-js/modules/_is-array-iter.js",
            "size": 279,
            "id": 227
          },
          {
            "name": "./node_modules/core-js/modules/core.get-iterator-method.js",
            "size": 297,
            "id": 228
          },
          {
            "name": "./node_modules/core-js/modules/_invoke.js",
            "size": 701,
            "id": 229
          },
          {
            "name": "./node_modules/core-js/modules/_microtask.js",
            "size": 1982,
            "id": 230
          },
          {
            "name": "./node_modules/core-js/modules/_perform.js",
            "size": 132,
            "id": 231
          },
          {
            "name": "./node_modules/core-js/modules/_user-agent.js",
            "size": 127,
            "id": 232
          },
          {
            "name": "./node_modules/core-js/modules/_promise-resolve.js",
            "size": 397,
            "id": 233
          },
          {
            "name": "./node_modules/core-js/modules/_redefine-all.js",
            "size": 169,
            "id": 234
          },
          {
            "name": "./node_modules/core-js/modules/_iter-detect.js",
            "size": 645,
            "id": 235
          },
          {
            "name": "./node_modules/core-js/modules/_iter-create.js",
            "size": 526,
            "id": 236
          },
          {
            "name": "./node_modules/core-js/modules/_object-dps.js",
            "size": 404,
            "id": 237
          },
          {
            "name": "./node_modules/core-js/modules/_to-absolute-index.js",
            "size": 223,
            "id": 238
          },
          {
            "name": "./node_modules/core-js/modules/_object-gpo.js",
            "size": 493,
            "id": 239
          },
          {
            "name": "./node_modules/core-js/modules/_meta.js",
            "size": 1558,
            "id": 240
          },
          {
            "name": "./node_modules/core-js/modules/_enum-keys.js",
            "size": 469,
            "id": 241
          },
          {
            "name": "./node_modules/core-js/modules/_object-gopn-ext.js",
            "size": 604,
            "id": 242
          },
          {
            "name": "./node_modules/core-js/modules/es6.regexp.match.js",
            "size": 1396,
            "id": 243
          },
          {
            "name": "./node_modules/core-js/modules/es6.regexp.exec.js",
            "size": 178,
            "id": 244
          },
          {
            "name": "./node_modules/core-js/modules/_iter-step.js",
            "size": 86,
            "id": 245
          },
          {
            "name": "./node_modules/core-js/modules/_object-sap.js",
            "size": 370,
            "id": 246
          },
          {
            "name": "./node_modules/core-js/modules/_object-assign.js",
            "size": 1281,
            "id": 247
          },
          {
            "name": "./node_modules/axios/lib/axios.js",
            "size": 1423,
            "id": 250
          },
          {
            "name": "./node_modules/axios/lib/core/Axios.js",
            "size": 2615,
            "id": 251
          },
          {
            "name": "./node_modules/axios/lib/core/InterceptorManager.js",
            "size": 1251,
            "id": 252
          },
          {
            "name": "./node_modules/axios/lib/core/dispatchRequest.js",
            "size": 1934,
            "id": 253
          },
          {
            "name": "./node_modules/axios/lib/core/transformData.js",
            "size": 550,
            "id": 254
          },
          {
            "name": "./node_modules/axios/lib/helpers/normalizeHeaderName.js",
            "size": 357,
            "id": 255
          },
          {
            "name": "./node_modules/axios/lib/core/settle.js",
            "size": 686,
            "id": 256
          },
          {
            "name": "./node_modules/axios/lib/core/enhanceError.js",
            "size": 1042,
            "id": 257
          },
          {
            "name": "./node_modules/axios/lib/core/buildFullPath.js",
            "size": 695,
            "id": 258
          },
          {
            "name": "./node_modules/axios/lib/helpers/isAbsoluteURL.js",
            "size": 563,
            "id": 259
          },
          {
            "name": "./node_modules/axios/lib/helpers/combineURLs.js",
            "size": 380,
            "id": 260
          },
          {
            "name": "./node_modules/axios/lib/helpers/parseHeaders.js",
            "size": 1393,
            "id": 261
          },
          {
            "name": "./node_modules/axios/lib/helpers/isURLSameOrigin.js",
            "size": 2454,
            "id": 262
          },
          {
            "name": "./node_modules/axios/lib/helpers/isValidXss.js",
            "size": 170,
            "id": 263
          },
          {
            "name": "./node_modules/axios/lib/helpers/cookies.js",
            "size": 1435,
            "id": 264
          },
          {
            "name": "./node_modules/axios/lib/cancel/CancelToken.js",
            "size": 1240,
            "id": 265
          },
          {
            "name": "./node_modules/axios/lib/helpers/spread.js",
            "size": 564,
            "id": 266
          },
          {
            "name": "./node_modules/setimmediate/setImmediate.js",
            "size": 6475,
            "id": 269
          },
          {
            "name": "./node_modules/core-js/modules/_own-keys.js",
            "size": 409,
            "id": 271
          },
          {
            "name": "./node_modules/core-js/modules/_create-property.js",
            "size": 271,
            "id": 272
          },
          {
            "name": "./node_modules/core-js/modules/es6.string.repeat.js",
            "size": 156,
            "id": 273
          },
          {
            "name": "./node_modules/core-js/modules/_string-repeat.js",
            "size": 373,
            "id": 274
          },
          {
            "name": "./node_modules/core-js/modules/es6.regexp.flags.js",
            "size": 201,
            "id": 275
          },
          {
            "name": "./node_modules/core-js/modules/es6.regexp.constructor.js",
            "size": 1608,
            "id": 276
          },
          {
            "name": "./node_modules/core-js/modules/_set-proto.js",
            "size": 906,
            "id": 277
          },
          {
            "name": "./node_modules/core-js/modules/es6.regexp.search.js",
            "size": 1192,
            "id": 278
          },
          {
            "name": "./node_modules/core-js/modules/_same-value.js",
            "size": 190,
            "id": 279
          },
          {
            "name": "./node_modules/core-js/modules/es6.array.find.js",
            "size": 527,
            "id": 280
          },
          {
            "name": "./node_modules/core-js/modules/_array-methods.js",
            "size": 1494,
            "id": 281
          },
          {
            "name": "./node_modules/core-js/modules/_array-species-create.js",
            "size": 223,
            "id": 282
          },
          {
            "name": "./node_modules/core-js/modules/_array-species-constructor.js",
            "size": 475,
            "id": 283
          },
          {
            "name": "./node_modules/core-js/modules/_string-trim.js",
            "size": 899,
            "id": 291
          },
          {
            "name": "./node_modules/core-js/modules/_string-ws.js",
            "size": 170,
            "id": 292
          },
          {
            "name": "./node_modules/core-js/library/fn/object/assign.js",
            "size": 107,
            "id": 324
          },
          {
            "name": "./node_modules/core-js/library/modules/es6.object.assign.js",
            "size": 162,
            "id": 325
          },
          {
            "name": "./node_modules/core-js/library/modules/_ctx.js",
            "size": 520,
            "id": 326
          },
          {
            "name": "./node_modules/core-js/library/modules/_a-function.js",
            "size": 125,
            "id": 327
          },
          {
            "name": "./node_modules/core-js/library/modules/_object-assign.js",
            "size": 1281,
            "id": 328
          },
          {
            "name": "./node_modules/core-js/library/modules/_array-includes.js",
            "size": 924,
            "id": 329
          },
          {
            "name": "./node_modules/core-js/library/modules/_to-length.js",
            "size": 215,
            "id": 330
          },
          {
            "name": "./node_modules/core-js/library/modules/_to-absolute-index.js",
            "size": 223,
            "id": 331
          },
          {
            "name": "./node_modules/core-js/library/fn/symbol/iterator.js",
            "size": 155,
            "id": 333
          },
          {
            "name": "./node_modules/core-js/library/modules/es6.string.iterator.js",
            "size": 531,
            "id": 334
          },
          {
            "name": "./node_modules/core-js/library/modules/_string-at.js",
            "size": 620,
            "id": 335
          },
          {
            "name": "./node_modules/core-js/library/modules/_iter-create.js",
            "size": 526,
            "id": 336
          },
          {
            "name": "./node_modules/core-js/library/modules/_object-dps.js",
            "size": 404,
            "id": 337
          },
          {
            "name": "./node_modules/core-js/library/modules/_html.js",
            "size": 101,
            "id": 338
          },
          {
            "name": "./node_modules/core-js/library/modules/_object-gpo.js",
            "size": 493,
            "id": 339
          },
          {
            "name": "./node_modules/core-js/library/modules/web.dom.iterable.js",
            "size": 969,
            "id": 340
          },
          {
            "name": "./node_modules/core-js/library/modules/es6.array.iterator.js",
            "size": 1116,
            "id": 341
          },
          {
            "name": "./node_modules/core-js/library/modules/_add-to-unscopables.js",
            "size": 46,
            "id": 342
          },
          {
            "name": "./node_modules/core-js/library/modules/_iter-step.js",
            "size": 86,
            "id": 343
          },
          {
            "name": "./node_modules/core-js/library/fn/symbol/index.js",
            "size": 240,
            "id": 345
          },
          {
            "name": "./node_modules/core-js/library/modules/es6.symbol.js",
            "size": 9284,
            "id": 346
          },
          {
            "name": "./node_modules/core-js/library/modules/_meta.js",
            "size": 1558,
            "id": 347
          },
          {
            "name": "./node_modules/core-js/library/modules/_enum-keys.js",
            "size": 469,
            "id": 348
          },
          {
            "name": "./node_modules/core-js/library/modules/_is-array.js",
            "size": 147,
            "id": 349
          },
          {
            "name": "./node_modules/core-js/library/modules/_object-gopn-ext.js",
            "size": 604,
            "id": 350
          },
          {
            "name": "./node_modules/core-js/library/modules/_object-gopd.js",
            "size": 577,
            "id": 351
          },
          {
            "name": "./node_modules/core-js/library/modules/es6.object.to-string.js",
            "size": 0,
            "id": 352
          },
          {
            "name": "./node_modules/core-js/library/modules/es7.symbol.async-iterator.js",
            "size": 43,
            "id": 353
          },
          {
            "name": "./node_modules/core-js/library/modules/es7.symbol.observable.js",
            "size": 40,
            "id": 354
          }
        ]
      },
      {
        "size": 0,
        "files": [
          "d14ba3970194507aab60.js"
        ],
        "modules": []
      },
      {
        "size": 4060011,
        "files": [
          "69233c447e51e5cc9498.css",
          "7691d620da067844fbb2.js"
        ],
        "modules": [
          {
            "name": "./node_modules/babel-runtime/helpers/typeof.js",
            "size": 1069,
            "id": 16
          },
          {
            "name": "./node_modules/element-ui/lib/utils/util.js",
            "size": 7319,
            "id": 22
          },
          {
            "name": "./node_modules/@fortawesome/fontawesome-svg-core/index.es.js",
            "size": 75515,
            "id": 23
          },
          {
            "name": "./node_modules/element-ui/lib/utils/dom.js",
            "size": 6826,
            "id": 25
          },
          {
            "name": "./node_modules/vform/dist/vform.common.js",
            "size": 32560,
            "id": 33
          },
          {
            "name": "./node_modules/element-ui/lib/mixins/emitter.js",
            "size": 1008,
            "id": 41
          },
          {
            "name": "./node_modules/babel-runtime/helpers/extends.js",
            "size": 544,
            "id": 45
          },
          {
            "name": "./node_modules/vue-no-ssr/dist/vue-no-ssr.common.js",
            "size": 1204,
            "id": 54
          },
          {
            "name": "./node_modules/@fortawesome/free-solid-svg-icons/index.es.js",
            "size": 676484,
            "id": 68
          },
          {
            "name": "./node_modules/element-ui/lib/locale/index.js",
            "size": 1716,
            "id": 84
          },
          {
            "name": "./node_modules/element-ui/lib/utils/vue-popper.js",
            "size": 5929,
            "id": 85
          },
          {
            "name": "./node_modules/element-ui/lib/utils/merge.js",
            "size": 396,
            "id": 86
          },
          {
            "name": "./node_modules/element-ui/lib/utils/shared.js",
            "size": 268,
            "id": 87
          },
          {
            "name": "./node_modules/throttle-debounce/debounce.js",
            "size": 1376,
            "id": 88
          },
          {
            "name": "./node_modules/vue2-transitions/dist/vue2-transitions.m.js",
            "size": 21064,
            "id": 100
          },
          {
            "name": "./node_modules/element-ui/lib/mixins/locale.js",
            "size": 341,
            "id": 118
          },
          {
            "name": "./node_modules/element-ui/lib/utils/scrollbar-width.js",
            "size": 990,
            "id": 119
          },
          {
            "name": "./node_modules/element-ui/lib/input.js",
            "size": 28943,
            "id": 120
          },
          {
            "name": "./node_modules/element-ui/lib/utils/resize-event.js",
            "size": 1758,
            "id": 121
          },
          {
            "name": "./node_modules/throttle-debounce/throttle.js",
            "size": 3530,
            "id": 122
          },
          {
            "name": "./node_modules/element-ui/lib/scrollbar.js",
            "size": 12193,
            "id": 123
          },
          {
            "name": "./node_modules/element-ui/lib/mixins/focus.js",
            "size": 193,
            "id": 124
          },
          {
            "name": "./node_modules/element-ui/lib/utils/scroll-into-view.js",
            "size": 1051,
            "id": 125
          },
          {
            "name": "./node_modules/element-ui/lib/utils/aria-utils.js",
            "size": 3049,
            "id": 126
          },
          {
            "name": "./node_modules/vue-i18n/dist/vue-i18n.esm.js",
            "size": 54550,
            "id": 141
          },
          {
            "name": "./node_modules/vue-client-only/dist/vue-client-only.common.js",
            "size": 1219,
            "id": 142
          },
          {
            "name": "./node_modules/sweetalert2/dist/sweetalert2.all.js",
            "size": 114003,
            "id": 145
          },
          {
            "name": "./node_modules/element-ui/lib/utils/date.js",
            "size": 11141,
            "id": 172
          },
          {
            "name": "./node_modules/element-ui/lib/utils/types.js",
            "size": 817,
            "id": 173
          },
          {
            "name": "./node_modules/element-ui/lib/utils/popup/index.js",
            "size": 6025,
            "id": 174
          },
          {
            "name": "./node_modules/element-ui/lib/mixins/migrating.js",
            "size": 1997,
            "id": 175
          },
          {
            "name": "./node_modules/element-ui/lib/utils/clickoutside.js",
            "size": 2314,
            "id": 176
          },
          {
            "name": "./node_modules/element-ui/lib/checkbox.js",
            "size": 18590,
            "id": 177
          },
          {
            "name": "./node_modules/babel-helper-vue-jsx-merge-props/index.js",
            "size": 1282,
            "id": 178
          },
          {
            "name": "./node_modules/element-ui/lib/tag.js",
            "size": 9375,
            "id": 179
          },
          {
            "name": "./node_modules/element-ui/lib/radio.js",
            "size": 13393,
            "id": 189
          },
          {
            "name": "./node_modules/unfetch/dist/unfetch.mjs",
            "size": 938,
            "id": 190
          },
          {
            "name": "./node_modules/deepmerge/dist/cjs.js",
            "size": 4035,
            "id": 192
          },
          {
            "name": "./node_modules/defu/lib/index.js",
            "size": 647,
            "id": 195
          },
          {
            "name": "./node_modules/@fortawesome/vue-fontawesome/index.es.js",
            "size": 13928,
            "id": 196
          },
          {
            "name": "./node_modules/@fortawesome/free-brands-svg-icons/index.es.js",
            "size": 474211,
            "id": 197
          },
          {
            "name": "./node_modules/vue-lazyload/vue-lazyload.esm.js",
            "size": 45131,
            "id": 198
          },
          {
            "name": "./node_modules/element-ui/lib/element-ui.common.js",
            "size": 1156622,
            "id": 199
          },
          {
            "name": "./node_modules/element-ui/lib/locale/lang/en.js",
            "size": 2729,
            "id": 200
          },
          {
            "name": "./node_modules/nouislider/distribute/nouislider.js",
            "size": 91647,
            "id": 201
          },
          {
            "name": "./node_modules/vue-toastr/dist/vue-toastr.esm.js",
            "size": 28368,
            "id": 202
          },
          {
            "name": "./node_modules/element-ui/lib/utils/date-util.js",
            "size": 11859,
            "id": 299
          },
          {
            "name": "./node_modules/element-ui/lib/locale/lang/zh-CN.js",
            "size": 2783,
            "id": 300
          },
          {
            "name": "./node_modules/element-ui/node_modules/deepmerge/dist/cjs.js",
            "size": 3309,
            "id": 301
          },
          {
            "name": "./node_modules/element-ui/lib/locale/format.js",
            "size": 1436,
            "id": 302
          },
          {
            "name": "./node_modules/element-ui/lib/utils/popup/popup-manager.js",
            "size": 5270,
            "id": 303
          },
          {
            "name": "./node_modules/element-ui/lib/utils/popper.js",
            "size": 50286,
            "id": 304
          },
          {
            "name": "./node_modules/element-ui/lib/button.js",
            "size": 10235,
            "id": 305
          },
          {
            "name": "./node_modules/resize-observer-polyfill/dist/ResizeObserver.es.js",
            "size": 33654,
            "id": 306
          },
          {
            "name": "./node_modules/element-ui/lib/transitions/collapse-transition.js",
            "size": 2728,
            "id": 307
          },
          {
            "name": "./node_modules/element-ui/lib/utils/vdom.js",
            "size": 567,
            "id": 308
          },
          {
            "name": "./node_modules/element-ui/lib/tooltip.js",
            "size": 12053,
            "id": 309
          },
          {
            "name": "./node_modules/element-ui/lib/button-group.js",
            "size": 8594,
            "id": 310
          },
          {
            "name": "./node_modules/element-ui/lib/checkbox-group.js",
            "size": 9676,
            "id": 311
          },
          {
            "name": "./node_modules/element-ui/lib/utils/after-leave.js",
            "size": 1129,
            "id": 312
          },
          {
            "name": "./node_modules/element-ui/lib/progress.js",
            "size": 16555,
            "id": 313
          },
          {
            "name": "./node_modules/throttle-debounce/index.js",
            "size": 140,
            "id": 314
          },
          {
            "name": "./node_modules/element-ui/lib/select.js",
            "size": 63640,
            "id": 315
          },
          {
            "name": "./node_modules/element-ui/lib/option.js",
            "size": 14585,
            "id": 316
          },
          {
            "name": "./node_modules/normalize-wheel/index.js",
            "size": 53,
            "id": 317
          },
          {
            "name": "./node_modules/normalize-wheel/src/normalizeWheel.js",
            "size": 6698,
            "id": 318
          },
          {
            "name": "./node_modules/normalize-wheel/src/UserAgent_DEPRECATED.js",
            "size": 7369,
            "id": 319
          },
          {
            "name": "./node_modules/normalize-wheel/src/isEventSupported.js",
            "size": 1984,
            "id": 320
          },
          {
            "name": "./node_modules/normalize-wheel/src/ExecutionEnvironment.js",
            "size": 1130,
            "id": 321
          },
          {
            "name": "./node_modules/element-ui/lib/utils/aria-dialog.js",
            "size": 3312,
            "id": 322
          },
          {
            "name": "./node_modules/babel-runtime/core-js/object/assign.js",
            "size": 94,
            "id": 323
          },
          {
            "name": "./node_modules/babel-runtime/core-js/symbol/iterator.js",
            "size": 96,
            "id": 332
          },
          {
            "name": "./node_modules/babel-runtime/core-js/symbol.js",
            "size": 87,
            "id": 344
          },
          {
            "name": "./node_modules/element-ui/lib/input-number.js",
            "size": 21663,
            "id": 355
          },
          {
            "name": "./node_modules/element-ui/lib/cascader-panel.js",
            "size": 45548,
            "id": 356
          },
          {
            "name": "./node_modules/element-ui/lib/popover.js",
            "size": 18138,
            "id": 357
          },
          {
            "name": "./node_modules/element-ui/lib/theme-chalk/index.css",
            "size": 49,
            "id": 358
          },
          {
            "name": "./node_modules/element-ui/lib/theme-chalk/display.css",
            "size": 49,
            "id": 359
          },
          {
            "name": "./node_modules/bootstrap/dist/js/bootstrap.js",
            "size": 135079,
            "id": 360
          },
          {
            "name": "./node_modules/jquery/dist/jquery.js",
            "size": 280364,
            "id": 361
          },
          {
            "name": "./node_modules/popper.js/dist/esm/popper.js",
            "size": 88514,
            "id": 362
          },
          {
            "name": "./node_modules/async-validator/es/index.js + 24 modules",
            "size": 35833,
            "id": 363
          },
          {
            "name": "css ./node_modules/css-loader/dist/cjs.js??ref--3-oneOf-1-1!./node_modules/postcss-loader/src??ref--3-oneOf-1-2!./node_modules/element-ui/lib/theme-chalk/index.css",
            "size": 226182,
            "id": ""
          },
          {
            "name": "css ./node_modules/css-loader/dist/cjs.js??ref--3-oneOf-1-1!./node_modules/postcss-loader/src??ref--3-oneOf-1-2!./node_modules/element-ui/lib/theme-chalk/display.css",
            "size": 982,
            "id": ""
          }
        ]
      }
    ],
    "pureCssSize": 167938,
    "unPureCssSize": 686038
  }
]